…
``` r
### 열 이름 주기
colnames(reviews)<-c("review.id", "content")

### 단어 토큰으로 쪼개기 
reviews %>% 
  unnest_tokens(word, content) ->
  reviews.word

### 5. 감성사전으로 점수 매기기
inner_join(reviews.word, get_sentiments("bing"), by="word")
```

    ## # A tibble: 964 x 3
    ##    review.id word        sentiment
    ##        <dbl> <chr>       <chr>    
    ##  1         1 convenience positive 
    ##  2         1 amazing     positive 
    ##  3         1 well        positive 
    ##  4         1 great       positive 
    ##  5         1 great       positive 
    ##  6         1 super       positive 
    ##  7         1 easy        positive 
    ##  8         1 solid       positive 
    ##  9         2 tired       negative 
    ## 10         2 like        positive 
    ## # ... with 954 more rows
…
