…
    ## [1] "tbl_df"     "tbl"        "data.frame"

``` r
print(class(get_sentiments("bing")))
```

    ## [1] "tbl_df"     "tbl"        "data.frame"

``` r
print(inner_join(my.df.text.word, get_sentiments("bing"), by="word"))
```

    ## # A tibble: 230 x 3
    ##    paper.id word        sentiment
    ##       <int> <chr>       <chr>    
    ##  1        1 influential positive 
    ##  2        1 enhanced    positive 
    ##  3        1 assure      positive 
    ##  4        2 harmful     negative 
    ##  5        2 effective   positive 
    ##  6        2 difficulty  negative 
    ##  7        2 correct     positive 
    ##  8        2 gain        positive 
    ##  9        2 easy        positive 
    ## 10        2 correct     positive 
    ## # ... with 220 more rows

#### 6\. Count Words & Make Pivot Table

``` r
print(my.df.text.word %>% 
        inner_join(get_sentiments("bing"), by="word") %>% 
        count(word, paper.id, sentiment) %>% 
        spread(sentiment, n, fill=0) ->
        myresult.sa)
```

    ## # A tibble: 164 x 4
    ##    word         paper.id negative positive
    ##    <chr>           <int>    <dbl>    <dbl>
    ##  1 achievements       10        0        1
    ##  2 advanced           11        0        1
    ##  3 affirmative         9        0        1
    ##  4 ambivalence         4        7        0
    ##  5 ambivalence         6        2        0
    ##  6 ambivalent         15        1        0
    ##  7 anger              23        3        0
    ##  8 anxious            15        1        0
    ##  9 assure              1        0        1
    ## 10 beneficial         13        0        1
    ## # ... with 154 more rows

#### 7\. Calculate Sentiment

``` r
myresult.sa %>% 
  group_by(paper.id) %>% 
  summarise(pos.sum = sum(positive),
            neg.sum = sum(negative),
            pos.sent = pos.sum-neg.sum)
```

    ## # A tibble: 23 x 4
    ##    paper.id pos.sum neg.sum pos.sent
    ##       <int>   <dbl>   <dbl>    <dbl>
    ##  1        1       3       0        3
    ##  2        2       5       3        2
    ##  3        3       3       2        1
    ##  4        4       6      16      -10
    ##  5        5       1       3       -2
    ##  6        6       1       6       -5
    ##  7        7       7       2        5
    ##  8        8       2       3       -1
    ##  9        9       7      11       -4
    ## 10       10      11       8        3
    ## # ... with 13 more rows
…
``` r
# 4. 원래 결과에 Join
print(myresult.sa %>% 
        inner_join(pub.tear.df, by="paper.id"))
```

    ## # A tibble: 164 x 6
    ##    word         paper.id negative positive paper.name pub.year
    ##    <chr>           <int>    <dbl>    <dbl> <fct>      <fct>   
    ##  1 achievements       10        0        1 p2013a.txt 2013    
    ##  2 advanced           11        0        1 p2014a.txt 2014    
    ##  3 affirmative         9        0        1 p2012b.txt 2012    
    ##  4 ambivalence         4        7        0 p2010b.txt 2010    
    ##  5 ambivalence         6        2        0 p2011a.txt 2011    
    ##  6 ambivalent         15        1        0 p2014e.txt 2014    
    ##  7 anger              23        3        0 p2015c.txt 2015    
    ##  8 anxious            15        1        0 p2014e.txt 2014    
    ##  9 assure              1        0        1 p2009a.txt 2009    
    ## 10 beneficial         13        0        1 p2014c.txt 2014    
    ## # ... with 154 more rows
…
