…
``` r
# 어떤 데이터에서 특정 값을 가진 row 를 보고싶다.
mpg[mpg$class == "suv",] #1
```

    ## # A tibble: 62 x 11
    ##    manufacturer model displ  year   cyl trans drv     cty   hwy fl    class
    ##    <chr>        <chr> <dbl> <int> <int> <chr> <chr> <int> <int> <chr> <chr>
    ##  1 chevrolet    c150~   5.3  2008     8 auto~ r        14    20 r     suv  
    ##  2 chevrolet    c150~   5.3  2008     8 auto~ r        11    15 e     suv  
    ##  3 chevrolet    c150~   5.3  2008     8 auto~ r        14    20 r     suv  
    ##  4 chevrolet    c150~   5.7  1999     8 auto~ r        13    17 r     suv  
    ##  5 chevrolet    c150~   6    2008     8 auto~ r        12    17 r     suv  
    ##  6 chevrolet    k150~   5.3  2008     8 auto~ 4        14    19 r     suv  
    ##  7 chevrolet    k150~   5.3  2008     8 auto~ 4        11    14 e     suv  
    ##  8 chevrolet    k150~   5.7  1999     8 auto~ 4        11    15 r     suv  
    ##  9 chevrolet    k150~   6.5  1999     8 auto~ 4        14    17 d     suv  
    ## 10 dodge        dura~   3.9  1999     6 auto~ 4        13    17 r     suv  
    ## # ... with 52 more rows

``` r
mpg[mpg$class == "suv", c('cty', 'manufacturer')] #2
```

    ## # A tibble: 62 x 2
    ##      cty manufacturer
    ##    <int> <chr>       
    ##  1    14 chevrolet   
    ##  2    11 chevrolet   
    ##  3    14 chevrolet   
    ##  4    13 chevrolet   
    ##  5    12 chevrolet   
    ##  6    14 chevrolet   
    ##  7    11 chevrolet   
    ##  8    11 chevrolet   
    ##  9    14 chevrolet   
    ## 10    13 dodge       
    ## # ... with 52 more rows
…
